{
    "name": "Main",
    "references": [
        "GUID:0979d3dfa947c584ab04239325ce2615",
        "GUID:f51ebe6a0ceec4240a699833d6309b23",
        "GUID:3a4e935828f104039b90d535bc856a32"
    ],
    "includePlatforms": [],
    "excludePlatforms": [],
    "allowUnsafeCode": false,
    "overrideReferences": false,
    "precompiledReferences": [],
    "autoReferenced": true,
    "defineConstraints": [],
    "versionDefines": [],
    "noEngineReferences": false
}