%YAML 1.1
%TAG !u! tag:unity3d.com,2011:
--- !u!1001 &1864185525267152314
PrefabInstance:
  m_ObjectHideFlags: 0
  serializedVersion: 2
  m_Modification:
    m_TransformParent: {fileID: 0}
    m_Modifications:
    - target: {fileID: 1219728267334908688, guid: a19512f853e965b4baabadf1a04f65ce,
        type: 3}
      propertyPath: portNormal
      value: 
      objectReference: {fileID: 21300000, guid: 627e6f05c90195d4eb5b81ac51a95e98,
        type: 3}
    - target: {fileID: 1219728267334908688, guid: a19512f853e965b4baabadf1a04f65ce,
        type: 3}
      propertyPath: portPressed
      value: 
      objectReference: {fileID: 21300000, guid: 93f65edafa2e3d845933153303f0a63c,
        type: 3}
    - target: {fileID: 3252669709984872083, guid: a19512f853e965b4baabadf1a04f65ce,
        type: 3}
      propertyPath: m_Sprite
      value: 
      objectReference: {fileID: 21300000, guid: 627e6f05c90195d4eb5b81ac51a95e98,
        type: 3}
    - target: {fileID: 4397316722700128592, guid: a19512f853e965b4baabadf1a04f65ce,
        type: 3}
      propertyPath: m_Name
      value: CallerPrefabA
      objectReference: {fileID: 0}
    - target: {fileID: 4397316722700128595, guid: a19512f853e965b4baabadf1a04f65ce,
        type: 3}
      propertyPath: m_Pivot.x
      value: 0
      objectReference: {fileID: 0}
    - target: {fileID: 4397316722700128595, guid: a19512f853e965b4baabadf1a04f65ce,
        type: 3}
      propertyPath: m_Pivot.y
      value: 1
      objectReference: {fileID: 0}
    - target: {fileID: 4397316722700128595, guid: a19512f853e965b4baabadf1a04f65ce,
        type: 3}
      propertyPath: m_RootOrder
      value: 0
      objectReference: {fileID: 0}
    - target: {fileID: 4397316722700128595, guid: a19512f853e965b4baabadf1a04f65ce,
        type: 3}
      propertyPath: m_AnchorMax.x
      value: 0
      objectReference: {fileID: 0}
    - target: {fileID: 4397316722700128595, guid: a19512f853e965b4baabadf1a04f65ce,
        type: 3}
      propertyPath: m_AnchorMax.y
      value: 1
      objectReference: {fileID: 0}
    - target: {fileID: 4397316722700128595, guid: a19512f853e965b4baabadf1a04f65ce,
        type: 3}
      propertyPath: m_AnchorMin.x
      value: 0
      objectReference: {fileID: 0}
    - target: {fileID: 4397316722700128595, guid: a19512f853e965b4baabadf1a04f65ce,
        type: 3}
      propertyPath: m_AnchorMin.y
      value: 1
      objectReference: {fileID: 0}
    - target: {fileID: 4397316722700128595, guid: a19512f853e965b4baabadf1a04f65ce,
        type: 3}
      propertyPath: m_SizeDelta.x
      value: 410
      objectReference: {fileID: 0}
    - target: {fileID: 4397316722700128595, guid: a19512f853e965b4baabadf1a04f65ce,
        type: 3}
      propertyPath: m_SizeDelta.y
      value: 265
      objectReference: {fileID: 0}
    - target: {fileID: 4397316722700128595, guid: a19512f853e965b4baabadf1a04f65ce,
        type: 3}
      propertyPath: m_LocalPosition.x
      value: 0
      objectReference: {fileID: 0}
    - target: {fileID: 4397316722700128595, guid: a19512f853e965b4baabadf1a04f65ce,
        type: 3}
      propertyPath: m_LocalPosition.y
      value: 0
      objectReference: {fileID: 0}
    - target: {fileID: 4397316722700128595, guid: a19512f853e965b4baabadf1a04f65ce,
        type: 3}
      propertyPath: m_LocalPosition.z
      value: 0
      objectReference: {fileID: 0}
    - target: {fileID: 4397316722700128595, guid: a19512f853e965b4baabadf1a04f65ce,
        type: 3}
      propertyPath: m_LocalRotation.w
      value: 1
      objectReference: {fileID: 0}
    - target: {fileID: 4397316722700128595, guid: a19512f853e965b4baabadf1a04f65ce,
        type: 3}
      propertyPath: m_LocalRotation.x
      value: 0
      objectReference: {fileID: 0}
    - target: {fileID: 4397316722700128595, guid: a19512f853e965b4baabadf1a04f65ce,
        type: 3}
      propertyPath: m_LocalRotation.y
      value: 0
      objectReference: {fileID: 0}
    - target: {fileID: 4397316722700128595, guid: a19512f853e965b4baabadf1a04f65ce,
        type: 3}
      propertyPath: m_LocalRotation.z
      value: 0
      objectReference: {fileID: 0}
    - target: {fileID: 4397316722700128595, guid: a19512f853e965b4baabadf1a04f65ce,
        type: 3}
      propertyPath: m_AnchoredPosition.x
      value: 0
      objectReference: {fileID: 0}
    - target: {fileID: 4397316722700128595, guid: a19512f853e965b4baabadf1a04f65ce,
        type: 3}
      propertyPath: m_AnchoredPosition.y
      value: 0
      objectReference: {fileID: 0}
    - target: {fileID: 4397316722700128595, guid: a19512f853e965b4baabadf1a04f65ce,
        type: 3}
      propertyPath: m_LocalEulerAnglesHint.x
      value: 0
      objectReference: {fileID: 0}
    - target: {fileID: 4397316722700128595, guid: a19512f853e965b4baabadf1a04f65ce,
        type: 3}
      propertyPath: m_LocalEulerAnglesHint.y
      value: 0
      objectReference: {fileID: 0}
    - target: {fileID: 4397316722700128595, guid: a19512f853e965b4baabadf1a04f65ce,
        type: 3}
      propertyPath: m_LocalEulerAnglesHint.z
      value: 0
      objectReference: {fileID: 0}
    - target: {fileID: 6844639425952146638, guid: a19512f853e965b4baabadf1a04f65ce,
        type: 3}
      propertyPath: m_SizeDelta.y
      value: 265
      objectReference: {fileID: 0}
    - target: {fileID: 7670843814091246985, guid: a19512f853e965b4baabadf1a04f65ce,
        type: 3}
      propertyPath: m_Sprite
      value: 
      objectReference: {fileID: 21300000, guid: 2a53f5383f40e514d8ebb644d273ef88,
        type: 3}
    - target: {fileID: 8806212841328898989, guid: a19512f853e965b4baabadf1a04f65ce,
        type: 3}
      propertyPath: m_Sprite
      value: 
      objectReference: {fileID: 21300000, guid: 057278e771bdcb04a964c2b3061db51e,
        type: 3}
    m_RemovedComponents: []
  m_SourcePrefab: {fileID: 100100000, guid: a19512f853e965b4baabadf1a04f65ce, type: 3}
