%YAML 1.1
%TAG !u! tag:unity3d.com,2011:
--- !u!1001 &5684403317916471343
PrefabInstance:
  m_ObjectHideFlags: 0
  serializedVersion: 2
  m_Modification:
    m_TransformParent: {fileID: 0}
    m_Modifications:
    - target: {fileID: 4177006150630368659, guid: a18ff199da17ba449a367c384b82d6b4,
        type: 3}
      propertyPath: m_Sprite
      value: 
      objectReference: {fileID: 21300000, guid: 2fe81d34465d51847ba739fe9b0e9288,
        type: 3}
    - target: {fileID: 4397316722700128592, guid: a18ff199da17ba449a367c384b82d6b4,
        type: 3}
      propertyPath: m_Name
      value: ReceiverPrefabB
      objectReference: {fileID: 0}
    - target: {fileID: 4397316722700128594, guid: a18ff199da17ba449a367c384b82d6b4,
        type: 3}
      propertyPath: m_Sprite
      value: 
      objectReference: {fileID: 21300000, guid: 8ddab1eb32be139469f3473d55294eb1,
        type: 3}
    - target: {fileID: 4397316722700128595, guid: a18ff199da17ba449a367c384b82d6b4,
        type: 3}
      propertyPath: m_Pivot.x
      value: 0
      objectReference: {fileID: 0}
    - target: {fileID: 4397316722700128595, guid: a18ff199da17ba449a367c384b82d6b4,
        type: 3}
      propertyPath: m_Pivot.y
      value: 1
      objectReference: {fileID: 0}
    - target: {fileID: 4397316722700128595, guid: a18ff199da17ba449a367c384b82d6b4,
        type: 3}
      propertyPath: m_RootOrder
      value: 0
      objectReference: {fileID: 0}
    - target: {fileID: 4397316722700128595, guid: a18ff199da17ba449a367c384b82d6b4,
        type: 3}
      propertyPath: m_AnchorMax.x
      value: 0
      objectReference: {fileID: 0}
    - target: {fileID: 4397316722700128595, guid: a18ff199da17ba449a367c384b82d6b4,
        type: 3}
      propertyPath: m_AnchorMax.y
      value: 1
      objectReference: {fileID: 0}
    - target: {fileID: 4397316722700128595, guid: a18ff199da17ba449a367c384b82d6b4,
        type: 3}
      propertyPath: m_AnchorMin.x
      value: 0
      objectReference: {fileID: 0}
    - target: {fileID: 4397316722700128595, guid: a18ff199da17ba449a367c384b82d6b4,
        type: 3}
      propertyPath: m_AnchorMin.y
      value: 1
      objectReference: {fileID: 0}
    - target: {fileID: 4397316722700128595, guid: a18ff199da17ba449a367c384b82d6b4,
        type: 3}
      propertyPath: m_SizeDelta.x
      value: 410
      objectReference: {fileID: 0}
    - target: {fileID: 4397316722700128595, guid: a18ff199da17ba449a367c384b82d6b4,
        type: 3}
      propertyPath: m_SizeDelta.y
      value: 265
      objectReference: {fileID: 0}
    - target: {fileID: 4397316722700128595, guid: a18ff199da17ba449a367c384b82d6b4,
        type: 3}
      propertyPath: m_LocalPosition.x
      value: 0
      objectReference: {fileID: 0}
    - target: {fileID: 4397316722700128595, guid: a18ff199da17ba449a367c384b82d6b4,
        type: 3}
      propertyPath: m_LocalPosition.y
      value: 0
      objectReference: {fileID: 0}
    - target: {fileID: 4397316722700128595, guid: a18ff199da17ba449a367c384b82d6b4,
        type: 3}
      propertyPath: m_LocalPosition.z
      value: 0
      objectReference: {fileID: 0}
    - target: {fileID: 4397316722700128595, guid: a18ff199da17ba449a367c384b82d6b4,
        type: 3}
      propertyPath: m_LocalRotation.w
      value: 1
      objectReference: {fileID: 0}
    - target: {fileID: 4397316722700128595, guid: a18ff199da17ba449a367c384b82d6b4,
        type: 3}
      propertyPath: m_LocalRotation.x
      value: 0
      objectReference: {fileID: 0}
    - target: {fileID: 4397316722700128595, guid: a18ff199da17ba449a367c384b82d6b4,
        type: 3}
      propertyPath: m_LocalRotation.y
      value: 0
      objectReference: {fileID: 0}
    - target: {fileID: 4397316722700128595, guid: a18ff199da17ba449a367c384b82d6b4,
        type: 3}
      propertyPath: m_LocalRotation.z
      value: 0
      objectReference: {fileID: 0}
    - target: {fileID: 4397316722700128595, guid: a18ff199da17ba449a367c384b82d6b4,
        type: 3}
      propertyPath: m_AnchoredPosition.x
      value: 0
      objectReference: {fileID: 0}
    - target: {fileID: 4397316722700128595, guid: a18ff199da17ba449a367c384b82d6b4,
        type: 3}
      propertyPath: m_AnchoredPosition.y
      value: 0
      objectReference: {fileID: 0}
    - target: {fileID: 4397316722700128595, guid: a18ff199da17ba449a367c384b82d6b4,
        type: 3}
      propertyPath: m_LocalEulerAnglesHint.x
      value: 0
      objectReference: {fileID: 0}
    - target: {fileID: 4397316722700128595, guid: a18ff199da17ba449a367c384b82d6b4,
        type: 3}
      propertyPath: m_LocalEulerAnglesHint.y
      value: 0
      objectReference: {fileID: 0}
    - target: {fileID: 4397316722700128595, guid: a18ff199da17ba449a367c384b82d6b4,
        type: 3}
      propertyPath: m_LocalEulerAnglesHint.z
      value: 0
      objectReference: {fileID: 0}
    - target: {fileID: 5127315035707559626, guid: a18ff199da17ba449a367c384b82d6b4,
        type: 3}
      propertyPath: portNormal
      value: 
      objectReference: {fileID: 21300000, guid: 639d991ce9890d6459bdb4f6889f608f,
        type: 3}
    - target: {fileID: 5127315035707559626, guid: a18ff199da17ba449a367c384b82d6b4,
        type: 3}
      propertyPath: portPressed
      value: 
      objectReference: {fileID: 21300000, guid: 042e4b4a6635c98459fa748a09bf3816,
        type: 3}
    - target: {fileID: 6122166339536527253, guid: a18ff199da17ba449a367c384b82d6b4,
        type: 3}
      propertyPath: m_Sprite
      value: 
      objectReference: {fileID: 21300000, guid: 78c7121f33da2fb40a706db366e0e587,
        type: 3}
    - target: {fileID: 7707377519290158571, guid: a18ff199da17ba449a367c384b82d6b4,
        type: 3}
      propertyPath: m_Sprite
      value: 
      objectReference: {fileID: 21300000, guid: a05e2346805eb134c8e96121c5dd53a9,
        type: 3}
    m_RemovedComponents: []
  m_SourcePrefab: {fileID: 100100000, guid: a18ff199da17ba449a367c384b82d6b4, type: 3}
